{
  "products": [
    {
      "id": 123,
      "name": "Książka EcmaScript2015",
      "price": 65.99,
      "tax": 23,
      "promo": false,
      "dataAdded": "2020-02-12T23:00:00.000Z",
      "categories": [
        "css",
        "html"
      ]
    },
    {
      "id": 234,
      "name": "Książka JavaScript",
      "price": 97.99,
      "tax": 23,
      "promo": true,
      "dataAdded": "2020-02-19T23:00:00.000Z",
      "categories": [
        "javascript"
      ]
    },
    {
      "id": 345,
      "name": "Książka HTML",
      "price": 54.99,
      "tax": 23,
      "promo": false,
      "dataAdded": "2020-02-14T23:00:00.000Z",
      "categories": [
        "html",
        "css"
      ]
    },
    {
      "id": 456,
      "name": "Książka React",
      "price": 124.99,
      "tax": 23,
      "promo": true,
      "dataAdded": "2020-02-19T23:00:00.000Z",
      "categories": [
        "javascript",
        "react"
      ]
    }
  ],
  "cart_items": [
    {
      "productId": 123,
      "amount": 1,
      "subtotal": 65.99,
      "id": 1
    },
    {
      "productId": 234,
      "amount": 1,
      "subtotal": 97.99,
      "id": 2
    },
    {
      "productId": 123,
      "amount": 2,
      "subtotal": 131.98,
      "id": 3
    },
    {
      "productId": 123,
      "amount": 3,
      "subtotal": 197.96999999999997,
      "id": 4
    },
    {
      "productId": 123,
      "amount": 4,
      "subtotal": 263.96,
      "id": 5
    },
    {
      "productId": 345,
      "amount": 1,
      "subtotal": 54.99,
      "id": 6
    },
    {
      "productId": 234,
      "amount": 2,
      "subtotal": 195.98,
      "id": 7
    }
  ]
}